Regional data examples for the eurostat R package • eurostat
…
You may need to review these manually, and if you have a problem with the boundaries, refer to the national statistical authorities of these non-EU countries.

Imputing to new boundaries with historical data

Eurostat released an untidy Excel document that contains all boundary changes from the NUTS2013 to the NUTS2016 boundary definition. You can load these tidy tables into your global environment with data("nuts_correspondence") and data ("regional_changes_2016") or simply reference them as eurostat::nuts_correspondence and eurostat::regional_changes_2016. (The eurostat:: part can be omitted if you have called earlierlibrary(eurostat) in your code.)

Because NUTS3 level data is very scarce, we did not create a programmatic solution to filling in new boundaries for NUTS2 regions.

However, using these correspondence information, many NUTS1 regions, when NUTS2 data is present in the data, can be filled in with historical data using simple equivalence or addition.

nuts_correspondence %>%
  filter ( nuts_level == 1 ) %>%
  select ( code16, resolution )

## # A tibble: 28 x 2
##    code16 resolution        
##    <chr>  <chr>             
##  1 FRB    FRB=FR24          
##  2 FRC    FRC=FR26+FR43     
##  3 FRD    FRD=FR23+FR25     
##  4 FRE    FRE=FR22+FR30     
##  5 FRF    FRF=FR21+FR41+FR42
##  6 FRG    FRG=FR51          
##  7 FRH    FRH=FR52          
##  8 FRI    FRI=FR53+FR61+FR63
##  9 FRJ    FRJ=FR62+FR81     
## 10 FRK    FRK=FR7           
## # … with 18 more rows
…
