Mapping Regional Data, Mapping Metadata Problems • eurostat
…
The following non-empty cases were present in the dataset, just not with the coding that we used in the 2018-2020 period (i.e., the NUTS2016 coding.) We are able to save 27 observations just by fixing the regional codes!

recoded_indicator %>%
  filter ( .data$typology == "nuts_level_2" ) %>%
  filter ( !is.na(.data$typology_change) )  %>%
  filter ( 
    # Keep only pairs where we actually save 
    # non-missing observations
    !is.na(values) ) %>%
  distinct ( .data$geo, .data$code_2016 ) %>%
  filter ( 
    # We filter out cases of countries who 
    # joined the NUTS system later
    .data$geo != .data$code_2016 )
#> # A tibble: 27 × 2
#>    geo   code_2016
#>    <chr> <chr>    
#>  1 FR21  FRF2     
#>  2 FR22  FRE2     
#>  3 FR23  FRD2     
#>  4 FR24  FRB0     
#>  5 FR25  FRD1     
#>  6 FR26  FRC1     
#>  7 FR3   FRE1     
#>  8 FR30  FRE1     
#>  9 FR41  FRF3     
#> 10 FR42  FRF1     
#> # … with 17 more rows
…
