Download Data from Eurostat Dissemination API — get_eurostat_raw • eurostat
…
    See also

    get_eurostat()

    Author

    Przemyslaw Biecek, Leo Lahti, Janne Huovari and Pyry Kantanen

    Examples

# \donttest{
eurostat:::get_eurostat_raw("educ_iste")
#> # A tibble: 213 × 16
#>    freq,indic_ed,geo\\TIME_PE…¹ `1998` `1999` `2000` `2001` `2002` `2003` `2004`
#>    <chr>                        <chr>  <chr>  <chr>  <chr>  <chr>  <chr>  <chr> 
#>  1 A,ST1_1,AL                   NA     NA     18.2   18.7   NA     18.7   NA    
#>  2 A,ST1_1,AT                   10.5 d 11.2   NA     11.1   11.3   11.3   11.9  
#>  3 A,ST1_1,BE                   NA     NA     NA     11.2 d 10.7 d 11.0 d 10.8 d
#>  4 A,ST1_1,BE_FRA               NA     NA     NA     NA     9.9    10.5   10.5  
#>  5 A,ST1_1,BE_VLA               13.1   13.3   13.7   NA     11.3   11.2   11.1  
#>  6 A,ST1_1,BG                   13.0   14.1   13.2   13.6   13.5   13.7   13.5  
#>  7 A,ST1_1,CY                   NA     15.3   14.9   16.6   15.1   15.0   14.0  
#>  8 A,ST1_1,CZ                   16.8   17.4   16.6   15.6   15.1   14.8   14.4  
#>  9 A,ST1_1,DE                   17.2   17.2   16.4   16.3   16.1   16.0   16.1  
#> 10 A,ST1_1,DK                   10.9 d 11.0 d 11.0 d 10.9 d 11.7 d 11.4 d : u   
#> # ℹ 203 more rows
#> # ℹ abbreviated name: ¹​`freq,indic_ed,geo\\TIME_PERIOD`
#> # ℹ 8 more variables: `2005` <chr>, `2006` <chr>, `2007` <chr>, `2008` <chr>,
#> #   `2009` <chr>, `2010` <chr>, `2011` <chr>, `2012` <chr>
…
