Download Eurostat Dictionary — get_eurostat_dic • eurostat
…
    See also

    label_eurostat(), get_eurostat(),
search_eurostat().

    Author

    Przemyslaw Biecek and Leo Lahti leo.lahti@iki.fi. Thanks to
Wietse Dol for contributions.

    Examples

# \donttest{
get_eurostat_dic("crop_pro")
#> # A tibble: 224 × 2
#>    code_name full_name                                                    
#>    <chr>     <chr>                                                        
#>  1 C1040     Cereals for the production of grain (including rice and seed)
#>  2 C1050     Cereals (excluding rice)                                     
#>  3 C1100     Wheat (including spelt)                                      
#>  4 C1120     Common wheat and spelt                                       
#>  5 C1123     Common winter wheat                                          
#>  6 C1124     Common spring wheat                                          
#>  7 C1130     Durum wheat                                                  
#>  8 C1133     Winter durum wheat                                           
#>  9 C1134     Spring durum wheat                                           
#> 10 C1140     Rye and maslin                                               
#> # … with 214 more rows

# Try another language
get_eurostat_dic("crop_pro", lang = "fr")
#> # A tibble: 224 × 2
#>    code_name full_name                                                     
#>    <chr>     <chr>                                                         
#>  1 C1040     Céréales pour la production de grains (riz et semence compris)
#>  2 C1050     Céréales (à l'exception du riz)                               
#>  3 C1100     Blé (épeautre compris)                                        
#>  4 C1120     Blé tendre et épeautre                                        
#>  5 C1123     Blé tendre d'hiver                                            
#>  6 C1124     Blé tendre de printemps                                       
#>  7 C1130     Blé dur                                                       
#>  8 C1133     Blé dur d'hiver                                               
#>  9 C1134     Blé dur de printemps                                          
#> 10 C1140     Seigle et méteil                                              
#> # … with 214 more rows
…
