…
[`label_eurostat()`](https://ropengov.github.io/eurostat/reference/label_eurostat.md),
[`get_eurostat()`](https://ropengov.github.io/eurostat/reference/get_eurostat.md),
[`search_eurostat()`](https://ropengov.github.io/eurostat/reference/search_eurostat.md).

## Author

Przemyslaw Biecek and Leo Lahti <leo.lahti@iki.fi>. Thanks to Wietse Dol
for contributions. Updated by Pyry Kantanen to support XML codelists.

## Examples

``` r
# \donttest{
get_eurostat_dic("crop_pro")
#> # A tibble: 25 × 2
#>    code_name full_name                                                       
#>    <chr>     <chr>                                                           
#>  1 C1050     Cereals (excluding rice)                                        
#>  2 C1120     Common wheat and spelt                                          
#>  3 C1130     Durum wheat                                                     
#>  4 C1160     Barley                                                          
#>  5 C1200     Grain maize                                                     
#>  6 C1250     Rice                                                            
#>  7 C1360     Potatoes (including early potatoes and seed potatoes)           
#>  8 C1370     Sugar beet (excluding seed)                                     
#>  9 C1410     Oilseeds                                                        
#> 10 C1600     Vegetables, melons and strawberries (excluding  kitchen gardens)
#> # ℹ 15 more rows

# Try another language
get_eurostat_dic("crop_pro", lang = "fr")
#> # A tibble: 25 × 2
#>    code_name full_name                                                       
#>    <chr>     <chr>                                                           
#>  1 C1050     Céréales (à l'exception du riz)                                 
#>  2 C1120     Blé tendre et épeautre                                          
#>  3 C1130     Blé dur                                                         
#>  4 C1160     Orge                                                            
#>  5 C1200     Maïs-grain                                                      
#>  6 C1250     Riz                                                             
#>  7 C1360     Pommes de terre (y compris les primeurs et les plants)          
#>  8 C1370     Betterave sucrière (à l'exception des semences)                 
#>  9 C1410     Plantes oléagineuses                                            
#> 10 C1600     Légumes, melons et fraises (à l'exception des jardins familiaux)
#> # ℹ 15 more rows
…
