…
## Author

Daniel Antal

## Examples

``` r
dat <- eurostat::tgs00026
regions::validate_nuts_regions(dat)
#> # A tibble: 2,723 × 8
#>    unit              direct na_item geo   time  values typology     valid_2016
#>    <chr>             <chr>  <chr>   <chr> <chr>  <dbl> <chr>        <lgl>     
#>  1 PPS_EU27_2020_HAB BAL    B6N     AT11  2009   18900 nuts_level_2 TRUE      
#>  2 PPS_EU27_2020_HAB BAL    B6N     AT12  2009   19900 nuts_level_2 TRUE      
#>  3 PPS_EU27_2020_HAB BAL    B6N     AT13  2009   19800 nuts_level_2 TRUE      
#>  4 PPS_EU27_2020_HAB BAL    B6N     AT21  2009   18500 nuts_level_2 TRUE      
#>  5 PPS_EU27_2020_HAB BAL    B6N     AT22  2009   18700 nuts_level_2 TRUE      
#>  6 PPS_EU27_2020_HAB BAL    B6N     AT31  2009   19300 nuts_level_2 TRUE      
#>  7 PPS_EU27_2020_HAB BAL    B6N     AT32  2009   19600 nuts_level_2 TRUE      
#>  8 PPS_EU27_2020_HAB BAL    B6N     AT33  2009   18700 nuts_level_2 TRUE      
#>  9 PPS_EU27_2020_HAB BAL    B6N     AT34  2009   19700 nuts_level_2 TRUE      
#> 10 PPS_EU27_2020_HAB BAL    B6N     BE10  2009   15400 nuts_level_2 TRUE      
#> # ℹ 2,713 more rows
```
