Tutorial for the eurostat R package • eurostat
…
##### DOWNLOAD PARAMETERS:

get_eurostat(id = 'avia_ec_emp_ent')

##### FIXITY CHECKSUM:

Fixity checksum (md5) for dataset avia_ec_emp_ent: 36975282eaaea50a6e5f0e6cd64ef4d2

# A tibble: 450 × 6
   freq  enterpr sex   geo   TIME_PERIOD values
   <chr> <chr>   <chr> <chr> <date>       <dbl>
 1 A     AIRP    F     CY    2006-01-01     192
 2 A     AIRP    F     CY    2007-01-01     240
 3 A     AIRP    F     CY    2008-01-01     514
 4 A     AIRP    F     CY    2009-01-01    3278
 5 A     AIRP    F     CY    2010-01-01    2587
 6 A     AIRP    F     CY    2011-01-01    2255
 7 A     AIRP    F     CY    2012-01-01    2954
 8 A     AIRP    F     CZ    2001-01-01       0
 9 A     AIRP    F     CZ    2002-01-01       0
10 A     AIRP    F     CZ    2003-01-01       0
# ℹ 440 more rows
# ℹ Use `print(n = ...)` to see more rows
…
