…
recoded_indicator %>%
  filter(typology == "nuts_level_2") %>%
  filter(!is.na(typology_change)) %>%
  filter(
    # Keep only pairs where we actually save
    # non-missing observations
    !is.na(values)
  ) %>%
  distinct(geo, code_2016) %>%
  filter(
    # We filter out cases of countries who
    # joined the NUTS system later
    geo != code_2016
  )
#> # A tibble: 27 × 2
#>    geo   code_2016
#>    <chr> <chr>    
#>  1 FR21  FRF2     
#>  2 FR22  FRE2     
#>  3 FR23  FRD2     
#>  4 FR24  FRB0     
#>  5 FR25  FRD1     
#>  6 FR26  FRC1     
#>  7 FR3   FRE1     
#>  8 FR30  FRE1     
#>  9 FR41  FRF3     
#> 10 FR42  FRF1     
#> # ℹ 17 more rows
```
…
